Main/simulation/qsim/Signal_Filter.msim.vcd
$comment
	File created using the following command:
		vcd file Signal_Filter.msim.vcd -direction
$end
$date
	Mon Jun 05 11:37:51 2023
$end
$version
	ModelSim Version 2020.1
$end
$timescale
	1ps
$end

$scope module arithmeticunit_vhd_vec_tst $end
$var wire 1 ! byteSelect [1] $end
$var wire 1 " byteSelect [0] $end
$var wire 1 # dataIn0 [7] $end
$var wire 1 $ dataIn0 [6] $end
$var wire 1 % dataIn0 [5] $end
$var wire 1 & dataIn0 [4] $end
$var wire 1 ' dataIn0 [3] $end
$var wire 1 ( dataIn0 [2] $end
$var wire 1 ) dataIn0 [1] $end
$var wire 1 * dataIn0 [0] $end
$var wire 1 + dataIn1 [7] $end
$var wire 1 , dataIn1 [6] $end
$var wire 1 - dataIn1 [5] $end
$var wire 1 . dataIn1 [4] $end
$var wire 1 / dataIn1 [3] $end
$var wire 1 0 dataIn1 [2] $end
$var wire 1 1 dataIn1 [1] $end
$var wire 1 2 dataIn1 [0] $end
$var wire 1 3 dataIn2 [7] $end
$var wire 1 4 dataIn2 [6] $end
$var wire 1 5 dataIn2 [5] $end
$var wire 1 6 dataIn2 [4] $end
$var wire 1 7 dataIn2 [3] $end
$var wire 1 8 dataIn2 [2] $end
$var wire 1 9 dataIn2 [1] $end
$var wire 1 : dataIn2 [0] $end
$var wire 1 ; dataIn3 [7] $end
$var wire 1 < dataIn3 [6] $end
$var wire 1 = dataIn3 [5] $end
$var wire 1 > dataIn3 [4] $end
$var wire 1 ? dataIn3 [3] $end
$var wire 1 @ dataIn3 [2] $end
$var wire 1 A dataIn3 [1] $end
$var wire 1 B dataIn3 [0] $end
$var wire 1 C filterEnb $end
$var wire 1 D result [7] $end
$var wire 1 E result [6] $end
$var wire 1 F result [5] $end
$var wire 1 G result [4] $end
$var wire 1 H result [3] $end
$var wire 1 I result [2] $end
$var wire 1 J result [1] $end
$var wire 1 K result [0] $end
$var wire 1 L round [1] $end
$var wire 1 M round [0] $end
$var wire 1 N zeroForce $end

$scope module i1 $end
$var wire 1 O gnd $end
$var wire 1 P vcc $end
$var wire 1 Q unknown $end
$var wire 1 R devoe $end
$var wire 1 S devclrn $end
$var wire 1 T devpor $end
$var wire 1 U ww_devoe $end
$var wire 1 V ww_devclrn $end
$var wire 1 W ww_devpor $end
$var wire 1 X ww_dataIn0 [7] $end
$var wire 1 Y ww_dataIn0 [6] $end
$var wire 1 Z ww_dataIn0 [5] $end
$var wire 1 [ ww_dataIn0 [4] $end
$var wire 1 \ ww_dataIn0 [3] $end
$var wire 1 ] ww_dataIn0 [2] $end
$var wire 1 ^ ww_dataIn0 [1] $end
$var wire 1 _ ww_dataIn0 [0] $end
$var wire 1 ` ww_dataIn1 [7] $end
$var wire 1 a ww_dataIn1 [6] $end
$var wire 1 b ww_dataIn1 [5] $end
$var wire 1 c ww_dataIn1 [4] $end
$var wire 1 d ww_dataIn1 [3] $end
$var wire 1 e ww_dataIn1 [2] $end
$var wire 1 f ww_dataIn1 [1] $end
$var wire 1 g ww_dataIn1 [0] $end
$var wire 1 h ww_dataIn2 [7] $end
$var wire 1 i ww_dataIn2 [6] $end
$var wire 1 j ww_dataIn2 [5] $end
$var wire 1 k ww_dataIn2 [4] $end
$var wire 1 l ww_dataIn2 [3] $end
$var wire 1 m ww_dataIn2 [2] $end
$var wire 1 n ww_dataIn2 [1] $end
$var wire 1 o ww_dataIn2 [0] $end
$var wire 1 p ww_dataIn3 [7] $end
$var wire 1 q ww_dataIn3 [6] $end
$var wire 1 r ww_dataIn3 [5] $end
$var wire 1 s ww_dataIn3 [4] $end
$var wire 1 t ww_dataIn3 [3] $end
$var wire 1 u ww_dataIn3 [2] $end
$var wire 1 v ww_dataIn3 [1] $end
$var wire 1 w ww_dataIn3 [0] $end
$var wire 1 x ww_filterEnb $end
$var wire 1 y ww_byteSelect [1] $end
$var wire 1 z ww_byteSelect [0] $end
$var wire 1 { ww_round [1] $end
$var wire 1 | ww_round [0] $end
$var wire 1 } ww_zeroForce $end
$var wire 1 ~ ww_result [7] $end
$var wire 1 !! ww_result [6] $end
$var wire 1 "! ww_result [5] $end
$var wire 1 #! ww_result [4] $end
$var wire 1 $! ww_result [3] $end
$var wire 1 %! ww_result [2] $end
$var wire 1 &! ww_result [1] $end
$var wire 1 '! ww_result [0] $end
$var wire 1 (! \result[0]~output_o\ $end
$var wire 1 )! \result[1]~output_o\ $end
$var wire 1 *! \result[2]~output_o\ $end
$var wire 1 +! \result[3]~output_o\ $end
$var wire 1 ,! \result[4]~output_o\ $end
$var wire 1 -! \result[5]~output_o\ $end
$var wire 1 .! \result[6]~output_o\ $end
$var wire 1 /! \result[7]~output_o\ $end
$var wire 1 0! \dataIn1[2]~input_o\ $end
$var wire 1 1! \dataIn0[2]~input_o\ $end
$var wire 1 2! \dataIn1[1]~input_o\ $end
$var wire 1 3! \dataIn0[1]~input_o\ $end
$var wire 1 4! \dataIn1[0]~input_o\ $end
$var wire 1 5! \dataIn0[0]~input_o\ $end
$var wire 1 6! \Add0~1\ $end
$var wire 1 7! \Add0~3\ $end
$var wire 1 8! \Add0~4_combout\ $end
$var wire 1 9! \dataIn3[2]~input_o\ $end
$var wire 1 :! \dataIn2[2]~input_o\ $end
$var wire 1 ;! \dataIn3[1]~input_o\ $end
$var wire 1 <! \dataIn2[1]~input_o\ $end
$var wire 1 =! \dataIn3[0]~input_o\ $end
$var wire 1 >! \dataIn2[0]~input_o\ $end
$var wire 1 ?! \Add1~1\ $end
$var wire 1 @! \Add1~3\ $end
$var wire 1 A! \Add1~4_combout\ $end
$var wire 1 B! \Add0~2_combout\ $end
$var wire 1 C! \Add1~2_combout\ $end
$var wire 1 D! \Add0~0_combout\ $end
$var wire 1 E! \Add1~0_combout\ $end
$var wire 1 F! \Add2~1\ $end
$var wire 1 G! \Add2~3\ $end
$var wire 1 H! \Add2~4_combout\ $end
$var wire 1 I! \filterEnb~input_o\ $end
$var wire 1 J! \zeroForce~input_o\ $end
$var wire 1 K! \Add2~6_combout\ $end
$var wire 1 L! \byteSelect[0]~input_o\ $end
$var wire 1 M! \byteSelect[1]~input_o\ $end
$var wire 1 N! \s_result~0_combout\ $end
$var wire 1 O! \s_result~1_combout\ $end
$var wire 1 P! \Add3~0_combout\ $end
$var wire 1 Q! \round[1]~input_o\ $end
$var wire 1 R! \Add3~1_combout\ $end
$var wire 1 S! \Add3~2_combout\ $end
$var wire 1 T! \s_sum[0]~0_combout\ $end
$var wire 1 U! \Add2~2_combout\ $end
$var wire 1 V! \Add2~7_combout\ $end
$var wire 1 W! \Add2~0_combout\ $end
$var wire 1 X! \Add2~8_combout\ $end
$var wire 1 Y! \round[0]~input_o\ $end
$var wire 1 Z! \Add3~4_cout\ $end
$var wire 1 [! \Add3~6_cout\ $end
$var wire 1 \! \Add3~7_combout\ $end
$var wire 1 ]! \Add3~9_combout\ $end
$var wire 1 ^! \dataIn1[3]~input_o\ $end
$var wire 1 _! \dataIn0[3]~input_o\ $end
$var wire 1 `! \Add0~5\ $end
$var wire 1 a! \Add0~6_combout\ $end
$var wire 1 b! \dataIn3[3]~input_o\ $end
$var wire 1 c! \dataIn2[3]~input_o\ $end
$var wire 1 d! \Add1~5\ $end
$var wire 1 e! \Add1~6_combout\ $end
$var wire 1 f! \Add2~5\ $end
$var wire 1 g! \Add2~9_combout\ $end
$var wire 1 h! \Add2~11_combout\ $end
$var wire 1 i! \s_result~2_combout\ $end
$var wire 1 j! \s_result~3_combout\ $end
$var wire 1 k! \Add3~10_combout\ $end
$var wire 1 l! \Add3~8\ $end
$var wire 1 m! \Add3~11_combout\ $end
$var wire 1 n! \Add3~13_combout\ $end
$var wire 1 o! \dataIn1[4]~input_o\ $end
$var wire 1 p! \dataIn0[4]~input_o\ $end
$var wire 1 q! \Add0~7\ $end
$var wire 1 r! \Add0~8_combout\ $end
$var wire 1 s! \dataIn3[4]~input_o\ $end
$var wire 1 t! \dataIn2[4]~input_o\ $end
$var wire 1 u! \Add1~7\ $end
$var wire 1 v! \Add1~8_combout\ $end
$var wire 1 w! \Add2~10\ $end
$var wire 1 x! \Add2~12_combout\ $end
$var wire 1 y! \Add2~14_combout\ $end
$var wire 1 z! \s_result~4_combout\ $end
$var wire 1 {! \s_result~5_combout\ $end
$var wire 1 |! \Add3~14_combout\ $end
$var wire 1 }! \Add3~12\ $end
$var wire 1 ~! \Add3~15_combout\ $end
$var wire 1 !" \Add3~17_combout\ $end
$var wire 1 "" \dataIn1[5]~input_o\ $end
$var wire 1 #" \dataIn0[5]~input_o\ $end
$var wire 1 $" \Add0~9\ $end
$var wire 1 %" \Add0~10_combout\ $end
$var wire 1 &" \dataIn3[5]~input_o\ $end
$var wire 1 '" \dataIn2[5]~input_o\ $end
$var wire 1 (" \Add1~9\ $end
$var wire 1 )" \Add1~10_combout\ $end
$var wire 1 *" \Add2~13\ $end
$var wire 1 +" \Add2~15_combout\ $end
$var wire 1 ," \Add2~17_combout\ $end
$var wire 1 -" \s_result~6_combout\ $end
$var wire 1 ." \s_result~7_combout\ $end
$var wire 1 /" \Add3~18_combout\ $end
$var wire 1 0" \Add3~16\ $end
$var wire 1 1" \Add3~19_combout\ $end
$var wire 1 2" \Add3~21_combout\ $end
$var wire 1 3" \dataIn1[6]~input_o\ $end
$var wire 1 4" \dataIn0[6]~input_o\ $end
$var wire 1 5" \Add0~11\ $end
$var wire 1 6" \Add0~12_combout\ $end
$var wire 1 7" \dataIn3[6]~input_o\ $end
$var wire 1 8" \dataIn2[6]~input_o\ $end
$var wire 1 9" \Add1~11\ $end
$var wire 1 :" \Add1~12_combout\ $end
$var wire 1 ;" \Add2~16\ $end
$var wire 1 <" \Add2~18_combout\ $end
$var wire 1 =" \Add2~20_combout\ $end
$var wire 1 >" \s_result~8_combout\ $end
$var wire 1 ?" \s_result~9_combout\ $end
$var wire 1 @" \Add3~22_combout\ $end
$var wire 1 A" \Add3~20\ $end
$var wire 1 B" \Add3~23_combout\ $end
$var wire 1 C" \Add3~25_combout\ $end
$var wire 1 D" \dataIn1[7]~input_o\ $end
$var wire 1 E" \dataIn0[7]~input_o\ $end
$var wire 1 F" \Add0~13\ $end
$var wire 1 G" \Add0~14_combout\ $end
$var wire 1 H" \dataIn3[7]~input_o\ $end
$var wire 1 I" \dataIn2[7]~input_o\ $end
$var wire 1 J" \Add1~13\ $end
$var wire 1 K" \Add1~14_combout\ $end
$var wire 1 L" \Add2~19\ $end
$var wire 1 M" \Add2~21_combout\ $end
$var wire 1 N" \Add2~23_combout\ $end
$var wire 1 O" \s_result~10_combout\ $end
$var wire 1 P" \s_result~11_combout\ $end
$var wire 1 Q" \Add3~26_combout\ $end
$var wire 1 R" \Add3~24\ $end
$var wire 1 S" \Add3~27_combout\ $end
$var wire 1 T" \Add3~29_combout\ $end
$var wire 1 U" \Add0~15\ $end
$var wire 1 V" \Add0~16_combout\ $end
$var wire 1 W" \Add1~15\ $end
$var wire 1 X" \Add1~16_combout\ $end
$var wire 1 Y" \Add2~22\ $end
$var wire 1 Z" \Add2~24_combout\ $end
$var wire 1 [" \Add2~26_combout\ $end
$var wire 1 \" \s_result~12_combout\ $end
$var wire 1 ]" \s_result~13_combout\ $end
$var wire 1 ^" \Add3~30_combout\ $end
$var wire 1 _" \Add3~28\ $end
$var wire 1 `" \Add3~31_combout\ $end
$var wire 1 a" \Add3~33_combout\ $end
$var wire 1 b" \Add0~17\ $end
$var wire 1 c" \Add0~18_combout\ $end
$var wire 1 d" \Add2~25\ $end
$var wire 1 e" \Add2~27_combout\ $end
$var wire 1 f" \Add2~29_combout\ $end
$var wire 1 g" \s_result~14_combout\ $end
$var wire 1 h" \s_result~15_combout\ $end
$var wire 1 i" \Add3~34_combout\ $end
$var wire 1 j" \Add3~32\ $end
$var wire 1 k" \Add3~35_combout\ $end
$var wire 1 l" \Add3~37_combout\ $end
$upscope $end
$upscope $end
$enddefinitions $end
#0
$dumpvars
0C
0N
0O
1P
xQ
1R
1S
1T
1U
1V
1W
0x
0}
1(!
1)!
1*!
1+!
1,!
1-!
1.!
0/!
10!
11!
12!
13!
14!
15!
16!
07!
18!
09!
1:!
1;!
1<!
0=!
1>!
0?!
0@!
0A!
1B!
0C!
0D!
1E!
0F!
1G!
1H!
0I!
0J!
0K!
1L!
0M!
0N!
1O!
1P!
0Q!
0R!
1S!
0T!
1U!
0V!
1W!
0X!
0Y!
0Z!
1[!
0\!
1]!
1^!
1_!
1`!
1a!
0b!
1c!
1d!
0e!
0f!
1g!
0h!
0i!
1j!
1k!
0l!
0m!
1n!
1o!
1p!
0q!
1r!
0s!
1t!
0u!
0v!
1w!
1x!
0y!
0z!
1{!
1|!
1}!
0~!
1!"
1""
1#"
1$"
1%"
0&"
1'"
1("
0)"
0*"
1+"
0,"
0-"
1."
1/"
00"
01"
12"
13"
14"
05"
16"
17"
18"
09"
1:"
1;"
0<"
0="
0>"
1?"
1@"
1A"
0B"
1C"
0D"
0E"
1F"
1G"
0H"
0I"
1J"
1K"
1L"
1M"
0N"
0O"
1P"
1Q"
0R"
0S"
1T"
1U"
0V"
1W"
0X"
0Y"
1Z"
0["
0\"
1]"
1^"
1_"
0`"
1a"
0b"
0c"
0d"
0e"
0f"
0g"
0h"
0i"
0j"
0k"
0l"
0!
1"
0#
1$
1%
1&
1'
1(
1)
1*
0+
1,
1-
1.
1/
10
11
12
03
14
15
16
17
18
19
1:
0;
1<
0=
0>
0?
0@
1A
0B
0L
0M
0X
1Y
1Z
1[
1\
1]
1^
1_
0`
1a
1b
1c
1d
1e
1f
1g
0h
1i
1j
1k
1l
1m
1n
1o
0p
1q
0r
0s
0t
0u
1v
0w
0y
1z
0{
0|
0~
1!!
1"!
1#!
1$!
1%!
1&!
1'!
0D
1E
1F
1G
1H
1I
1J
1K
$end
#40000
1#
0$
0%
0&
0'
0(
0)
0*
1+
0,
0-
0.
0/
00
01
02
13
04
05
06
07
08
09
0:
1;
0<
0A
0_
0^
0]
0\
0[
0Z
0Y
1X
0g
0f
0e
0d
0c
0b
0a
1`
0o
0n
0m
0l
0k
0j
0i
1h
0v
0q
1p
1H"
07"
0;!
1I"
08"
0'"
0t!
0c!
0:!
0<!
0>!
1D"
03"
0""
0o!
0^!
00!
02!
04!
1E"
04"
0#"
0p!
0_!
01!
03!
05!
06!
0O!
17!
0`!
0{!
1q!
0."
0$"
0?"
15"
0P"
0F"
0U"
1b"
0E!
1A!
0d!
1e!
1u!
1v!
0("
1)"
19"
1@!
0j!
0J"
0]"
0W"
1h"
1i"
1X"
0^"
0K"
0k!
0A!
0:"
0+"
0;"
0)"
0x!
1*"
0v!
0g!
0w!
0e!
0H!
1f!
0W!
1c"
1V"
0G"
0Q"
06"
0@"
0%"
0/"
0r!
0|!
0a!
08!
0S!
0B!
0U!
0]!
0!"
02"
0C"
0T"
1g!
1w!
1x!
0*"
1+"
1;"
1<"
0L"
0f!
0n!
1Y"
0a"
1d"
1l"
1e"
0Z"
0g!
0M"
0<"
0+"
0x!
1/!
0.!
0)!
0-!
0,!
0+!
0*!
0(!
1~
0!!
0&!
0"!
0#!
0$!
0%!
0'!
0K
0J
0I
0H
0G
0F
0E
1D
#80000
1$
1%
1&
1'
1.
1/
10
12
16
17
18
1:
1\
1[
1Z
1Y
1g
1e
1d
1c
1o
1m
1l
1k
1t!
1c!
1:!
1>!
1o!
1^!
10!
14!
14"
1#"
1p!
1_!
1%"
16"
1D!
1O!
18!
1{!
0q!
1."
1$"
1?"
1E!
1A!
1e!
1v!
1x!
1g!
1@"
0%"
05"
1/"
1r!
1|!
1f!
1S!
1F!
1<"
1+"
1U!
1]!
0g!
0w!
1!"
0x!
1*"
12"
06"
1F"
0+"
1C"
1G"
0<"
1+"
1x!
1M"
1,!
1+!
1*!
1(!
1#!
1$!
1%!
1'!
1K
1I
1H
1G
#100000
1C
1x
1I!
0P!
1R!
1T!
1V!
1y!
1,"
1N"
1f"
1k"
1S"
11"
1~!
0S!
0@"
1Q"
0C"
0]!
1T"
1-!
0(!
0,!
1"!
0'!
0#!
0K
0G
1F
#120000
0$
0&
0'
02
0:
0#
0+
11
03
19
0;
1A
1=
1>
1?
1B
0\
0[
0Y
0X
0g
1f
0`
0o
1n
0h
1w
1v
1t
1s
1r
0p
0H"
1&"
1s!
1b!
1;!
1=!
0I"
1<!
0>!
0D"
12!
04!
0E"
04"
0p!
0_!
1a!
1q!
0r!
16"
0F"
0D!
1B!
1U"
0b"
0O!
0@!
1j!
0e!
0u!
0v!
1("
1)"
1W"
0h"
0X"
0+"
0;"
0)"
09"
1v!
0A!
1d!
0c"
0V"
0U!
0G!
1W!
0F!
0G"
1<"
0*"
1r!
0$"
1%"
15"
1="
0M"
1U!
1G!
1X!
0V!
1e!
1*"
1:"
1;"
0<"
1L"
0,"
0d"
0e"
0/"
01"
1M"
0="
1g!
1H!
0f!
1V!
0N"
1@"
1B"
06"
0;"
1C"
0Q"
0S"
0g!
1K!
1h!
0@"
0B"
1N"
02"
0f"
0i"
0k"
1Q"
1S"
0C"
1k!
1m!
1S!
1\!
0h!
0T"
0k!
0m!
1]!
1n!
1T"
0l"
0+!
1,!
0n!
0$!
1#!
0-!
0,!
0H
1G
0"!
0#!
0/!
1-!
1)!
1(!
0G
0F
0~
1"!
1&!
1'!
0)!
1K
1J
1F
0D
0&!
0J
#160000
1$
1&
1'
12
1:
01
09
0=
0?
0.
0/
06
07
1*
1,
14
1@
1_
1\
1[
1Y
1g
0f
0d
0c
1a
1o
0n
0l
0k
1i
1u
0t
0r
0&"
0b!
19!
18"
0t!
0c!
0<!
1>!
13"
0o!
0^!
02!
14!
14"
1p!
1_!
15!
16!
1O!
0B!
0j!
0?"
1F"
1]"
0E!
1?!
1C!
1@!
0v!
0:"
1J"
1A!
1u!
0."
1)"
19"
1:"
0J"
1+"
1v!
0("
0H!
1f!
1K"
1<"
0L"
0x!
0A!
0C!
0@!
0W!
1G"
1B!
0X!
1A!
1H!
0f!
0y!
1="
0M"
0Y"
1g!
0K!
0)"
1x!
1,"
0K"
0<"
1L"
0="
1/"
11"
1y!
0+"
0S!
0\!
1h!
1Z"
0N"
1@"
1B"
0|!
0~!
0g!
1K!
0H!
1f!
1g!
0K!
1S!
1\!
0h!
0!"
1C"
0Q"
0S"
1["
1k!
1m!
0]!
0,"
1|!
1~!
12"
0@"
0B"
0C"
1!"
0/"
01"
1n!
1^"
1`"
0T"
0k!
0m!
1]!
0S!
0\!
1h!
1k!
1m!
0]!
0n!
1a"
02"
1+!
0(!
1,!
0*!
1n!
1$!
0'!
1#!
0%!
1(!
0-!
1)!
1*!
0,!
0K
0I
1H
1G
1'!
0"!
1&!
1%!
0#!
0+!
1.!
0)!
0(!
1K
1J
1I
0G
0F
0$!
1!!
0&!
0'!
1)!
0K
0J
0H
1E
1&!
1J
#200000
0&
02
0:
11
19
1=
1?
1.
1/
16
17
0*
0,
04
0@
1;
1(
1<
0_
1]
0[
0g
1f
1d
1c
0a
0o
1n
1l
1k
0i
0u
1t
1r
1q
1p
1H"
17"
1&"
1b!
09!
08"
1t!
1c!
1<!
0>!
03"
1o!
1^!
12!
04!
0p!
11!
05!
08!
1`!
06!
0O!
0B!
07!
1j!
0a!
0q!
1?"
16"
0F"
1E!
0?!
1C!
0v!
1("
0A!
0u!
1."
1)"
0]"
1K"
1X"
0Z"
1d"
1e"
1M"
1+"
1v!
0)"
09"
0x!
0C!
1W!
0G"
1<"
0r!
1$"
0g!
18!
1B!
17!
1a!
0f!
08!
1H!
0h!
0%"
05"
1="
0M"
1X!
0y!
0:"
1J"
0+"
1,"
1N"
1f"
0e"
0["
0^"
0`"
0f"
1i"
1k"
1Q"
1S"
1/"
11"
0,"
0K"
0W"
0<"
0|!
0~!
0N"
1@"
1B"
06"
1F"
1+"
1;"
0k!
0m!
1K!
0H!
0K!
1S!
1\!
0n!
1,"
1G"
0L"
1C"
0Q"
0S"
0!"
0="
0X"
1M"
1Y"
0/"
01"
12"
1T"
1l"
0i"
0k"
0a"
0l"
02"
1N"
0d"
1e"
0@"
0B"
0T"
1/"
11"
1]!
0S!
0\!
0]!
12"
0C"
1f"
0e"
1Q"
1S"
0.!
1/!
1-!
1+!
0*!
1,!
0)!
1T"
0f"
1i"
1k"
0!!
1~
1"!
1$!
0%!
1#!
0&!
1(!
0-!
0+!
0/!
0J
0I
1H
1G
1F
0E
1D
1l"
0i"
0k"
1'!
0"!
0$!
0~
0,!
1+!
0(!
1K
0H
0F
0D
0l"
0#!
1$!
0'!
1-!
0K
1H
0G
1"!
1/!
1F
1~
0/!
1D
0~
0D
#240000
01
09
0?
0/
07
1,
14
0<
0'
1+
13
0A
0%
1-
15
0f
0d
1b
1a
1`
0n
0l
1j
1i
1h
0v
0t
0q
0\
0Z
0#"
0_!
07"
0b!
0;!
1I"
18"
1'"
0c!
0<!
1D"
13"
1""
0^!
02!
0B!
1P"
16"
0G"
0U"
1V"
1c"
1h"
1)"
1K"
1X"
1@!
0j!
1u!
0."
1]"
1q!
1r!
0$"
0v!
1A!
0d!
0+"
0;"
1d"
0V"
1b"
1<"
0U!
0V!
1="
0c"
1Z"
0d"
1e"
0<"
1L"
0,"
0e!
1H!
1%"
15"
06"
1+"
1K!
1g!
1w!
0/"
01"
0M"
0Y"
0="
1f"
1["
1@"
1B"
1C"
1^"
1`"
1i"
1k"
0@"
0B"
0Z"
1d"
0N"
02"
1x!
0*"
1h!
1S!
1\!
1,"
1<"
0L"
1M"
1Y"
1="
1/"
11"
1]!
1k!
1m!
0+"
1y!
0Q"
0S"
0e"
0["
0C"
1l"
1a"
0^"
0`"
0f"
0T"
1|!
1~!
0,"
1n!
12"
1@"
1B"
1Z"
0d"
1N"
0+!
1,!
1Q"
1S"
1e"
1["
1C"
0/"
01"
1!"
0i"
0k"
0a"
0$!
1#!
1.!
1/!
0,!
1(!
0H
1G
0l"
02"
1^"
1`"
1f"
1T"
1!!
1~
0#!
1'!
1+!
1)!
0-!
1K
0G
1E
1D
1i"
1k"
1a"
1$!
1&!
0"!
0.!
1*!
1,!
1J
1H
0F
1l"
0!!
1%!
1#!
1-!
0+!
0/!
1I
1G
0E
1"!
0$!
0~
1.!
0H
1F
0D
1!!
1/!
1E
1~
1D
#280000
1/
17
0,
04
1&
0.
06
1@
1#
0>
0B
1)
1d
0c
0a
1l
0k
0i
1^
1[
1X
0w
1u
0s
0s!
19!
0=!
1E"
1p!
13!
08"
0t!
1c!
03"
0o!
1^!
0a!
0q!
1."
16"
0F"
0]"
1e!
1:"
0J"
1B!
1G"
1V"
1c"
0E!
0A!
1d!
0("
0?"
0)"
0e!
0u!
0H!
0W!
0e"
0Z"
1d"
0M"
0Y"
1U!
0K"
0G"
1L"
0r!
1$"
0%"
05"
0x!
1M"
1Y"
1V!
1Z"
0N"
1e"
0["
0f"
0X!
0K!
1v!
0g!
1+"
1;"
0<"
1,"
0h!
1x!
0S!
0\!
0i"
0k"
0^"
0`"
1f"
0Q"
0S"
1["
0Z"
1N"
0y!
06"
1F"
0+"
0,"
1G"
1<"
0L"
0|!
0~!
1Q"
1S"
0["
1^"
1`"
0T"
1i"
1k"
0a"
0l"
0]!
1y!
0k!
0m!
1/"
11"
0="
0@"
0B"
12"
0n!
1|!
1~!
1l"
1a"
0^"
0`"
1T"
0!"
1="
0/"
01"
02"
1@"
1B"
0a"
1!"
0C"
0(!
0/!
0.!
0-!
1C"
0'!
0~
0!!
0"!
0*!
1-!
1.!
1/!
0)!
1+!
0K
0F
0E
0D
0%!
1"!
1!!
1~
0&!
1$!
0,!
1*!
0.!
0+!
0J
0I
1H
1F
1E
1D
0#!
1%!
0!!
0$!
1,!
1I
0H
0G
0E
1#!
1G
#320000
1.
16
0@
0#
11
19
1'
1A
0-
05
0(
00
08
1f
0e
1c
0b
1n
0m
1k
0j
1v
0u
0]
1\
0X
0E"
1_!
01!
09!
1;!
0'"
1t!
0:!
1<!
0""
1o!
00!
12!
0B!
07!
1r!
1?"
1%"
15"
0P"
0v!
1("
1)"
19"
0@!
1j!
0d!
0{!
0`!
1a!
0G"
0V"
0c"
0e"
1Z"
0d"
0M"
1g!
0a!
1e!
1u!
1A!
0:"
0)"
09"
16"
0F"
0;"
18!
0U!
0V!
1G"
1U"
1:"
1+"
1;"
0<"
1L"
1f!
1v!
0("
1h!
0N"
1e"
1["
0f"
0i"
0k"
1^"
1`"
1f"
0Q"
0S"
1k!
1m!
1)"
19"
0x!
1*"
0g!
0w!
0="
1,"
1V"
0b"
0Y"
1c"
1d"
1/"
11"
0@"
0B"
1x!
0h!
0y!
0:"
0;"
1n!
0T"
1i"
1k"
1a"
0l"
1l"
0|!
0~!
0k!
0m!
1y!
0C"
12"
1|!
1~!
0n!
0!"
0/!
1.!
0-!
1)!
1!"
0~
1!!
0"!
1&!
1+!
0,!
1/!
1J
0F
1E
0D
1$!
0#!
1~
0*!
0)!
1H
0G
1D
0%!
0&!
1*!
0J
0I
1%!
1I
#360000
0.
06
01
09
0A
1,
14
1>
1B
1<
12
1:
1*
1g
0f
0c
1a
1o
0n
0k
1i
1w
0v
1s
1q
1_
15!
17"
1s!
0;!
1=!
18"
0t!
0<!
1>!
13"
0o!
02!
14!
1B!
17!
0r!
06"
1F"
1?!
1O!
1@!
0j!
0?"
1J"
1]"
16!
0B!
07!
1K"
0A!
1C!
0G"
0U"
1<"
0L"
0x!
08!
1U!
1V!
0y!
1="
0V"
1b"
0f!
1M"
1Y"
18!
1H!
1N"
1g!
1w!
0c"
0d"
1@"
1B"
0|!
0~!
0!"
1C"
1x!
0*"
1h!
1Q"
1S"
1K!
1S!
1\!
1T"
1k!
1m!
0+"
1y!
1|!
1~!
0,"
1n!
1]!
1,!
0*!
0/"
01"
1!"
1#!
0%!
1-!
0I
1G
02"
1"!
1(!
1)!
1F
1'!
1&!
1*!
1K
1J
1%!
0+!
1I
0$!
0H
#400000
1A
0,
04
0>
0B
1@
1-
15
0)
1?
0+
03
0=
0w
1v
1u
1t
0s
0r
1b
0a
0`
1j
0i
0h
0^
03!
0I"
08"
1'"
0D"
03"
1""
0&"
0s!
1b!
19!
1;!
0=!
1E!
0?!
0C!
0@!
1A!
0e!
0u!
0v!
0%"
05"
1P"
16"
0F"
0]"
1G"
1U"
1V"
0b"
1c"
0h"
1:"
0J"
0K"
0X"
1B!
17!
08!
1K"
1W"
0c"
0V"
0G"
1L"
06"
1F"
1+"
1;"
0x!
1v!
0g!
0H!
1f!
0A!
1d!
1C!
1@!
1W!
1X!
1A!
0d!
0U!
0G!
1e!
1g!
0K!
0h!
1x!
0y!
1,"
1G"
0L"
0Z"
0e"
1X"
0M"
0Y"
0f!
0N"
1d"
1e"
0f"
0["
1/"
11"
0|!
0~!
1y!
0k!
0m!
0S!
0\!
1h!
0V!
0e!
1f!
1k!
1m!
0]!
0n!
1|!
1~!
0!"
12"
0^"
0`"
0i"
0k"
1f"
0e"
0Q"
0S"
0T"
0f"
1i"
1k"
0l"
0a"
1!"
1n!
1l"
0i"
0k"
1+!
0*!
0)!
0(!
0l"
1$!
0%!
0&!
0'!
1)!
1*!
0.!
0/!
0-!
0K
0J
0I
1H
1&!
1%!
0!!
0~
0"!
1/!
1J
1I
0F
0E
0D
1~
0/!
1D
0~
0D
#420000
0C
0x
0I!
1P!
0R!
0T!
0X!
0h!
0y!
0,"
0="
0B"
01"
0~!
0m!
1S!
0k!
0|!
0@"
1Q"
1T"
1]!
0n!
0!"
0C"
0,!
0*!
0)!
1(!
1-!
0#!
0%!
0&!
1'!
1"!
1K
0J
0I
0G
1F
#440000
0A
1,
14
0@
0-
05
1)
1=
0*
1#
1(
0/
07
1%
0v
0u
1r
0d
0b
1a
0l
0j
1i
0_
1^
1]
1Z
1X
1E"
1#"
11!
13!
05!
18"
0'"
0c!
13"
0""
0^!
1&"
09!
0;!
0C!
0A!
1a!
1q!
0."
0P"
16"
1]"
1e!
1u!
0:"
1J"
1D!
06!
0B!
07!
18!
0G"
0U"
1V"
1c"
1e"
1Z"
0V"
1b"
1M"
1Y"
08!
1`!
1B!
17!
0W!
1F!
0K"
0W"
0v!
1^"
0Q"
0/"
1r!
0$"
0w!
1G!
1%"
15"
02"
0T"
1a"
0x!
1*"
0X"
0M"
18!
0`!
0G!
0a!
0q!
0f!
0c"
0d"
0r!
1$"
1w!
1a!
1q!
1f!
0Z"
0e"
06"
0;"
1r!
0$"
0w!
0%"
05"
0*"
1.!
0-!
0+!
16"
1;"
1%"
15"
1*"
1!!
0"!
0$!
0H
0F
1E
06"
0;"
#480000
1A
0,
04
0=
1*
0#
1B
0?
1.
16
11
19
0<
0&
1w
1v
0t
0r
0q
1f
1c
0a
1n
1k
0i
1_
0[
0X
0E"
0p!
15!
08"
1t!
1<!
03"
1o!
12!
07"
0&"
0b!
1;!
1=!
0E!
1?!
0e!
0)"
0B!
07!
1j!
1?"
16"
0F"
0]"
0@!
1v!
0J"
0D!
16!
1G"
1U"
1V"
0b"
1c"
1e"
0c"
1Z"
0V"
1M"
1B!
1K"
1W"
1x!
1A!
0^"
0G"
0<"
1L"
1@"
1k!
08!
1`!
1U!
1G!
0+"
0g!
1C!
0F!
0a!
0q!
1n!
1C"
0a"
1H!
0f!
1X"
0M"
0Y"
0U!
0G!
0Z"
0e"
0H!
1f!
1d"
1e"
0r!
1$"
1w!
0%"
05"
0*"
0e"
1g!
0.!
1,!
1)!
06"
1F"
1;"
0!!
1#!
1&!
1J
1G
0E
1G"
0L"
